The IBM attrition dataset
…
• Dummy variables from: all_nominal_predictors()

• Zero variance filter on: all_predictors()

• Correlation filter on: all_numeric_predictors()

• SMOTE based on: attrition

We can see the preprocessed dataset doing:

at_rec %>%
  prep() %>%
  bake(new_data = NULL)

# A tibble: 1,972 × 56
     age daily_rate distance_from_home hourly_rate monthly_income monthly_rate
   <dbl>      <dbl>              <dbl>       <dbl>          <dbl>        <dbl>
 1    49        279                  8          61           5130        24907
 2    33       1392                  3          56           2909        23159
 3    27        591                  2          40           3468        16632
 4    32       1005                  2          79           3068        11864
 5    59       1324                  3          81           2670         9964
 6    30       1358                 24          67           2693        13335
 7    38        216                 23          44           9526         8787
 8    36       1299                 27          94           5237        16577
 9    35        809                 16          84           2426        16479
10    29        153                 15          49           4193        12682
# ℹ 1,962 more rows
# ℹ 50 more variables: num_companies_worked <dbl>, percent_salary_hike <dbl>,
#   stock_option_level <dbl>, total_working_years <dbl>,
#   training_times_last_year <dbl>, years_at_company <dbl>,
#   years_in_current_role <dbl>, years_since_last_promotion <dbl>,
#   years_with_curr_manager <dbl>, business_travel_Travel_Frequently <dbl>,
#   business_travel_Travel_Rarely <dbl>, department_Sales <dbl>, …
…
# A tibble: 3 × 3
  .metric  .estimator .estimate
  <chr>    <chr>          <dbl>
1 sens     binary         0.688
2 spec     binary         0.806
3 accuracy binary         0.786

best_model %>%
  predict(at_test, type = "prob")

# A tibble: 295 × 2
   .pred_Yes .pred_No
       <dbl>    <dbl>
 1   0.0107     0.989
 2   0.412      0.588
 3   0.315      0.685
 4   0.00725    0.993
 5   0.232      0.768
 6   0.802      0.198
 7   0.107      0.893
 8   0.541      0.459
 9   0.0122     0.988
10   0.464      0.536
# ℹ 285 more rows
